{
    "title": "Дневник побочных эффектов при химиотерапии",
    "status": "active",
    "subjectType": [
        "Patient"
    ],
    "code": [
        {
            "code": "chemo-sideeffects-diary",
            "system": "http://miramedix.ru/fhir/CodeSystem/questionnaire",
            "display": "Дневник побочных эффектов при химиотерапии",
            "version": "1.0"
        }
    ],
    "jurisdiction": [
        {
            "text": "ru-RU"
        }
    ],
    "url": "https://1-6.mmdx.ru:18480/Questionnaire/c8bcab8e-1111-aaaa-bbbb-1baa697a416c",
    "item": [
        {
            "linkId": "0.body-weight",
            "type": "display",
            "text": "Масса тела"
        },
        {
            "code": [
                {
                    "code": "29463-7",
                    "system": "http://loinc.org"
                }
            ],
            "definition": "https://loinc.org/29463-7/",
            "text": "Значение",
            "type": "quantity",
            "linkId": "0.body-weight.value",
            "repeats": false,
            "initial": [
                {
                    "value": {
                        "Quantity": {
                            "unit": "кг",
                            "system": "http://unitsofmeasure.org",
                            "code": "kg"
                        }
                    }
                }
            ],
            "extension": [
                {
                    "url": "http://miramedix.ru/fhir/StructureDefinition/questionnaire-itemDefaultInputValue",
                    "valueDecimal": 60
                },
                {
                    "url": "http://hl7.org/fhir/StructureDefinition/minValue",
                    "valueDecimal": 20
                },
                {
                    "url": "http://hl7.org/fhir/StructureDefinition/maxValue",
                    "valueDecimal": 400
                },
                {
                    "url": "http://hl7.org/fhir/StructureDefinition/maxDecimalPlaces",
                    "valueInteger": 1
                }
            ]
        },
        {
            "text": "Дата и время",
            "type": "dateTime",
            "linkId": "0.body-weight.datetime",
            "repeats": false
        },
        {
            "text": "Комментарий",
            "type": "text",
            "linkId": "0.body-weight.comment",
            "repeats": false
        },
        {
            "linkId": "0.blood-pressure",
            "type": "display",
            "text": "Артериальное давление"
        },
        {
            "text": "Систолическое (верхнее)",
            "type": "quantity",
            "linkId": "0.blood-pressure.systolic.value",
            "repeats": false,
            "initial": [
                {
                    "value": {
                        "Quantity": {
                            "unit": "мм рт.ст.",
                            "system": "http://unitsofmeasure.org",
                            "code": "mm[Hg]"
                        }
                    }
                }
            ],
            "extension": [
                {
                    "url": "http://miramedix.ru/fhir/StructureDefinition/questionnaire-itemDefaultInputValue",
                    "valueDecimal": 110
                },
                {
                    "url": "http://hl7.org/fhir/StructureDefinition/minValue",
                    "valueDecimal": 40
                },
                {
                    "url": "http://hl7.org/fhir/StructureDefinition/maxValue",
                    "valueDecimal": 400
                },
                {
                    "url": "http://hl7.org/fhir/StructureDefinition/maxDecimalPlaces",
                    "valueInteger": 0
                }
            ],
            "definition": "https://loinc.org/8480-6/"
        },
        {
            "code": [
                {
                    "code": "8462-4",
                    "system": "http://loinc.org"
                }
            ],
            "text": "Диастолическое (нижнее)",
            "type": "quantity",
            "linkId": "0.blood-pressure.diastolic.value",
            "repeats": false,
            "initial": [
                {
                    "value": {
                        "Quantity": {
                            "unit": "мм рт.ст.",
                            "system": "http://unitsofmeasure.org",
                            "code": "mm[Hg]"
                        }
                    }
                }
            ],
            "extension": [
                {
                    "url": "http://miramedix.ru/fhir/StructureDefinition/questionnaire-itemDefaultInputValue",
                    "valueDecimal": 60
                },
                {
                    "url": "http://hl7.org/fhir/StructureDefinition/minValue",
                    "valueDecimal": 20
                },
                {
                    "url": "http://hl7.org/fhir/StructureDefinition/maxValue",
                    "valueDecimal": 300
                },
                {
                    "url": "http://hl7.org/fhir/StructureDefinition/maxDecimalPlaces",
                    "valueInteger": 0
                }
            ],
            "definition": "https://loinc.org/8462-4/"
        },
        {
            "text": "Рука",
            "type": "choice",
            "linkId": "0.blood-pressure.arm-choice",
            "repeats": false,
            "answerOption": [
                {
                    "value": {
                        "Coding": {
                            "code": "left",
                            "display": "Левая"
                        }
                    }
                },
                {
                    "value": {
                        "Coding": {
                            "code": "right",
                            "display": "Правая"
                        }
                    }
                }
            ],
            "initial": [
                {
                    "value": {
                        "Coding": {
                            "code": "left",
                            "display": "Левая"
                        }
                    }
                }
            ]
        },
        {
            "text": "Дата и время",
            "type": "dateTime",
            "linkId": "0.blood-pressure.datetime",
            "repeats": false
        },
        {
            "text": "Комментарий",
            "type": "text",
            "linkId": "0.blood-pressure.comment",
            "repeats": false
        },
        {
            "linkId": "0.glycemia",
            "type": "display",
            "text": "Уровень глюкозы"
        },
        {
            "code": [
                {
                    "code": "14743-9",
                    "system": "http://loinc.org"
                }
            ],
            "text": "Значение",
            "type": "quantity",
            "repeats": false,
            "linkId": "0.glycemia.value",
            "initial": [
                {
                    "value": {
                        "Quantity": {
                            "unit": "ммоль/л",
                            "system": "http://unitsofmeasure.org",
                            "code": "mmol/L"
                        }
                    }
                }
            ],
            "extension": [
                {
                    "url": "http://miramedix.ru/fhir/StructureDefinition/questionnaire-itemDefaultInputValue",
                    "valueDecimal": 5.5
                },
                {
                    "url": "http://hl7.org/fhir/StructureDefinition/minValue",
                    "valueDecimal": 1
                },
                {
                    "url": "http://hl7.org/fhir/StructureDefinition/maxValue",
                    "valueDecimal": 35
                },
                {
                    "url": "http://hl7.org/fhir/StructureDefinition/maxDecimalPlaces",
                    "valueInteger": 1
                }
            ],
            "definition": "https://loinc.org/14743-9/"
        },
        {
            "text": "Дата и время",
            "type": "dateTime",
            "linkId": "0.glycemia.datetime",
            "repeats": false
        },
        {
            "text": "Комментарий",
            "type": "text",
            "linkId": "0.glycemia.comment",
            "repeats": false
        },
        {
            "linkId": "1.fever",
            "type": "display",
            "text": "Жар/озноб"
        },
        {
            "code": [
                {
                    "code": "8315-4",
                    "system": "http://loinc.org"
                }
            ],
            "text": "Максимальная температура",
            "repeats": false,
            "type": "quantity",
            "linkId": "1.fever.max-body-temperature.value",
            "initial": [
                {
                    "value": {
                        "Quantity": {
                            "unit": "°C",
                            "system": "http://unitsofmeasure.org",
                            "code": "Cel"
                        }
                    }
                }
            ],
            "extension": [
                {
                    "url": "http://miramedix.ru/fhir/StructureDefinition/questionnaire-itemDefaultInputValue",
                    "valueDecimal": 36.6
                },
                {
                    "url": "http://hl7.org/fhir/StructureDefinition/minValue",
                    "valueDecimal": 31
                },
                {
                    "url": "http://hl7.org/fhir/StructureDefinition/maxValue",
                    "valueDecimal": 43
                },
                {
                    "url": "http://hl7.org/fhir/StructureDefinition/maxDecimalPlaces",
                    "valueInteger": 1
                }
            ],
            "definition": "https://loinc.org/8315-4/"
        },
        {
            "text": "Оцените Ваше состояние",
            "type": "choice",
            "repeats": false,
            "extension": [
                {
                    "url": "http://hl7.org/fhir/StructureDefinition/questionnaire-hidden",
                    "valueBoolean": true
                },
                {
                    "url": "http://miramedix.ru/fhir/StructureDefinition/questionnaire-item-auto-answer",
                    "extension": [
                        {
                            "url": "based-on-item",
                            "valueString": "1.fever.max-body-temperature.value"
                        },
                        {
                            "url": "auto-answer",
                            "valueBoolean": true
                        }
                    ]
                }
            ],
            "linkId": "1.fever.severity",
            "answerOption": [
                {
                    "value": {
                        "Coding": {
                            "code": "1",
                            "display": "Нет\nтемпература ниже 37°С"
                        }
                    }
                },
                {
                    "value": {
                        "Coding": {
                            "code": "2",
                            "display": "Легкий\nтемпература от 37°С до 38°С"
                        }
                    }
                },
                {
                    "value": {
                        "Coding": {
                            "code": "3",
                            "display": "Средний\nтемпература от 38°С до 40°С"
                        }
                    }
                },
                {
                    "value": {
                        "Coding": {
                            "code": "4",
                            "display": "Сильный\nтемпература выше 40°С"
                        }
                    }
                }
            ]
        },
        {
            "text": "Дата и время",
            "type": "dateTime",
            "linkId": "1.fever.datetime",
            "repeats": false
        },
        {
            "text": "Комментарий",
            "type": "text",
            "linkId": "1.fever.comment",
            "repeats": false
        },
        {
            "text": "Препарат",
            "repeats": true,
            "type": "reference",
            "linkId": "1.fever.meds"
        },
        {
            "linkId": "2.fatigue",
            "type": "display",
            "text": "Усталость/слабость"
        },
        {
            "text": "Оцените Ваше состояние",
            "type": "choice",
            "repeats": false,
            "linkId": "2.fatigue.severity",
            "answerOption": [
                {
                    "value": {
                        "Coding": {
                            "code": "1",
                            "display": "Нет"
                        }
                    }
                },
                {
                    "value": {
                        "Coding": {
                            "code": "2",
                            "display": "Легкий\nследование обычному распорядку дня возможно с небольшими усилиями"
                        }
                    }
                },
                {
                    "value": {
                        "Coding": {
                            "code": "3",
                            "display": "Средний\nв постели менее половины дня"
                        }
                    }
                },
                {
                    "value": {
                        "Coding": {
                            "code": "4",
                            "display": "Сильный\nв постели более половины дня"
                        }
                    }
                }
            ]
        },
        {
            "text": "Дата и время",
            "type": "dateTime",
            "linkId": "2.fatigue.datetime",
            "repeats": false
        },
        {
            "text": "Комментарий",
            "type": "text",
            "linkId": "2.fatigue.comment",
            "repeats": false
        },
        {
            "linkId": "3.nausea",
            "type": "display",
            "text": "Тошнота"
        },
        {
            "text": "Оцените Ваше состояние",
            "type": "choice",
            "repeats": false,
            "linkId": "3.nausea.severity",
            "answerOption": [
                {
                    "value": {
                        "Coding": {
                            "code": "1",
                            "display": "Нет"
                        }
                    }
                },
                {
                    "value": {
                        "Coding": {
                            "code": "2",
                            "display": "Легкий\nможно есть"
                        }
                    }
                },
                {
                    "value": {
                        "Coding": {
                            "code": "3",
                            "display": "Средний\nеда/питье меньше обычного"
                        }
                    }
                },
                {
                    "value": {
                        "Coding": {
                            "code": "4",
                            "display": "Сильный\nневозможно есть или пить"
                        }
                    }
                }
            ]
        },
        {
            "text": "Дата и время",
            "type": "dateTime",
            "linkId": "3.nausea.datetime",
            "repeats": false
        },
        {
            "text": "Комментарий",
            "type": "text",
            "linkId": "3.nausea.comment",
            "repeats": false
        },
        {
            "text": "Препарат",
            "repeats": true,
            "type": "reference",
            "linkId": "3.nausea.meds"
        },
        {
            "linkId": "4.vomit",
            "type": "display",
            "text": "Рвота"
        },
        {
            "text": "Оцените Ваше состояние",
            "type": "choice",
            "repeats": false,
            "linkId": "4.vomit.severity",
            "answerOption": [
                {
                    "value": {
                        "Coding": {
                            "code": "1",
                            "display": "Нет"
                        }
                    }
                },
                {
                    "value": {
                        "Coding": {
                            "code": "2",
                            "display": "Легкий\nрвота 1 раз за день"
                        }
                    }
                },
                {
                    "value": {
                        "Coding": {
                            "code": "3",
                            "display": "Средний\nрвота 2-5 раз за день"
                        }
                    }
                },
                {
                    "value": {
                        "Coding": {
                            "code": "4",
                            "display": "Сильный\nрвота более 6 раз за день"
                        }
                    }
                }
            ]
        },
        {
            "text": "Дата и время",
            "type": "dateTime",
            "linkId": "4.vomit.datetime",
            "repeats": false
        },
        {
            "text": "Комментарий",
            "type": "text",
            "linkId": "4.vomit.comment",
            "repeats": false
        },
        {
            "text": "Препарат",
            "repeats": true,
            "type": "reference",
            "linkId": "4.vomit.meds"
        },
        {
            "linkId": "5.stomatitis",
            "type": "display",
            "text": "Стоматит"
        },
        {
            "text": "Оцените Ваше состояние",
            "type": "choice",
            "repeats": false,
            "linkId": "5.stomatitis.severity",
            "answerOption": [
                {
                    "value": {
                        "Coding": {
                            "code": "1",
                            "display": "Нет"
                        }
                    }
                },
                {
                    "value": {
                        "Coding": {
                            "code": "2",
                            "display": "Легкий\nбезболезненная язвочка"
                        }
                    }
                },
                {
                    "value": {
                        "Coding": {
                            "code": "3",
                            "display": "Средний\nболезненная язвочка, можно есть"
                        }
                    }
                },
                {
                    "value": {
                        "Coding": {
                            "code": "4",
                            "display": "Сильный\nболезненная язвочка, невозможно есть"
                        }
                    }
                }
            ]
        },
        {
            "text": "Дата и время",
            "type": "dateTime",
            "linkId": "5.stomatitis.datetime",
            "repeats": false
        },
        {
            "text": "Комментарий",
            "type": "text",
            "linkId": "5.stomatitis.comment",
            "repeats": false
        },
        {
            "linkId": "6.stool",
            "type": "display",
            "text": "Изменение стула"
        },
        {
            "text": "Оцените Ваше состояние",
            "type": "choice",
            "repeats": false,
            "linkId": "6.stool.severity",
            "answerOption": [
                {
                    "value": {
                        "Coding": {
                            "code": "1",
                            "display": "Нет"
                        }
                    }
                },
                {
                    "value": {
                        "Coding": {
                            "code": "2",
                            "display": "Легкий\nкашеобразный стул"
                        }
                    }
                },
                {
                    "value": {
                        "Coding": {
                            "code": "3",
                            "display": "Средний\nводянистый стул"
                        }
                    }
                },
                {
                    "value": {
                        "Coding": {
                            "code": "4",
                            "display": "Сильный\nстул с кровью, головокружение"
                        }
                    }
                }
            ]
        },
        {
            "text": "Дата и время",
            "type": "dateTime",
            "linkId": "6.stool.datetime",
            "repeats": false
        },
        {
            "text": "Комментарий",
            "type": "text",
            "linkId": "6.stool.comment",
            "repeats": false
        },
        {
            "text": "Препарат",
            "repeats": true,
            "type": "reference",
            "linkId": "6.stool.meds"
        },
        {
            "linkId": "7.constipation",
            "type": "display",
            "text": "Запор"
        },
        {
            "text": "Оцените Ваше состояние",
            "type": "choice",
            "repeats": false,
            "linkId": "7.constipation.severity",
            "answerOption": [
                {
                    "value": {
                        "Coding": {
                            "code": "1",
                            "display": "Нет"
                        }
                    }
                },
                {
                    "value": {
                        "Coding": {
                            "code": "2",
                            "display": "Легкий\nнет стула 2 дня"
                        }
                    }
                },
                {
                    "value": {
                        "Coding": {
                            "code": "3",
                            "display": "Средний\nнет стула 3-4 дня"
                        }
                    }
                },
                {
                    "value": {
                        "Coding": {
                            "code": "4",
                            "display": "Сильный\nнет стула более 4 дней и (или) вздутие живота"
                        }
                    }
                }
            ]
        },
        {
            "text": "Дата и время",
            "type": "dateTime",
            "linkId": "7.constipation.datetime",
            "repeats": false
        },
        {
            "text": "Комментарий",
            "type": "text",
            "linkId": "7.constipation.comment",
            "repeats": false
        },
        {
            "text": "Препарат",
            "repeats": true,
            "type": "reference",
            "linkId": "7.constipation.meds"
        },
        {
            "linkId": "8.diarrhea",
            "type": "display",
            "text": "Диарея"
        },
        {
            "text": "Оцените Ваше состояние",
            "repeats": false,
            "type": "choice",
            "linkId": "8.diarrhea.severity",
            "answerOption": [
                {
                    "value": {
                        "Coding": {
                            "code": "1",
                            "display": "Нет"
                        }
                    }
                },
                {
                    "value": {
                        "Coding": {
                            "code": "2",
                            "display": "Легкий\nдиарея до 2 раз за день"
                        }
                    }
                },
                {
                    "value": {
                        "Coding": {
                            "code": "3",
                            "display": "Средний\nдиарея 2-4 раза за день"
                        }
                    }
                },
                {
                    "value": {
                        "Coding": {
                            "code": "4",
                            "display": "Сильный\nдиарея более 4 раз за день"
                        }
                    }
                }
            ]
        },
        {
            "text": "Дата и время",
            "type": "dateTime",
            "linkId": "8.diarrhea.datetime",
            "repeats": false
        },
        {
            "text": "Комментарий",
            "type": "text",
            "linkId": "8.diarrhea.comment",
            "repeats": false
        },
        {
            "text": "Препарат",
            "repeats": true,
            "type": "reference",
            "linkId": "8.diarrhea.meds"
        },
        {
            "linkId": "9.lack-of-appetite",
            "type": "display",
            "text": "Потеря аппетита"
        },
        {
            "text": "Оцените Ваше состояние",
            "repeats": false,
            "type": "choice",
            "linkId": "9.lack-of-appetite.severity",
            "answerOption": [
                {
                    "value": {
                        "Coding": {
                            "code": "1",
                            "display": "Нет"
                        }
                    }
                },
                {
                    "value": {
                        "Coding": {
                            "code": "2",
                            "display": "Легкий\nнебольшое снижение аппетита"
                        }
                    }
                },
                {
                    "value": {
                        "Coding": {
                            "code": "3",
                            "display": "Средний\nнет чувства голода"
                        }
                    }
                },
                {
                    "value": {
                        "Coding": {
                            "code": "4",
                            "display": "Сильный\nничего не кажется аппетитным невозможно есть"
                        }
                    }
                }
            ]
        },
        {
            "text": "Дата и время",
            "type": "dateTime",
            "linkId": "9.lack-of-appetite.datetime",
            "repeats": false
        },
        {
            "text": "Комментарий",
            "type": "text",
            "linkId": "9.lack-of-appetite.comment",
            "repeats": false
        },
        {
            "text": "Препарат",
            "repeats": true,
            "type": "reference",
            "linkId": "9.lack-of-appetite.meds"
        },
        {
            "linkId": "10.sore-throat",
            "type": "display",
            "text": "Боль/затруднение при  глотании"
        },
        {
            "text": "Оцените Ваше состояние",
            "repeats": false,
            "type": "choice",
            "linkId": "10.sore-throat.severity",
            "answerOption": [
                {
                    "value": {
                        "Coding": {
                            "code": "1",
                            "display": "Нет"
                        }
                    }
                },
                {
                    "value": {
                        "Coding": {
                            "code": "2",
                            "display": "Легкий\nесть боль, можно есть"
                        }
                    }
                },
                {
                    "value": {
                        "Coding": {
                            "code": "3",
                            "display": "Средний\nвынужден перейти на мягкую или жидкую пищу"
                        }
                    }
                },
                {
                    "value": {
                        "Coding": {
                            "code": "4",
                            "display": "Сильный\nневозможно есть"
                        }
                    }
                }
            ]
        },
        {
            "text": "Дата и время",
            "type": "dateTime",
            "linkId": "10.sore-throat.datetime",
            "repeats": false
        },
        {
            "text": "Комментарий",
            "type": "text",
            "linkId": "10.sore-throat.comment",
            "repeats": false
        },
        {
            "linkId": "11.allergic-reaction",
            "type": "display",
            "text": "Аллергическая реакция"
        },
        {
            "text": "Оцените Ваше состояние",
            "repeats": false,
            "type": "choice",
            "linkId": "11.allergic-reaction.severity",
            "answerOption": [
                {
                    "value": {
                        "Coding": {
                            "code": "1",
                            "display": "Нет"
                        }
                    }
                },
                {
                    "value": {
                        "Coding": {
                            "code": "2",
                            "display": "Легкий\nсыпь без жара"
                        }
                    }
                },
                {
                    "value": {
                        "Coding": {
                            "code": "3",
                            "display": "Средний\nсыпь, температура до 38°С"
                        }
                    }
                },
                {
                    "value": {
                        "Coding": {
                            "code": "4",
                            "display": "Сильный\nкрапивница, температура выше 38°С Затрудненное дыхание"
                        }
                    }
                }
            ]
        },
        {
            "text": "Дата и время",
            "type": "dateTime",
            "linkId": "11.allergic-reaction.datetime",
            "repeats": false
        },
        {
            "text": "Комментарий",
            "type": "text",
            "linkId": "11.allergic-reaction.comment",
            "repeats": false
        },
        {
            "text": "Препарат",
            "repeats": true,
            "type": "reference",
            "linkId": "11.allergic-reaction.meds"
        },
        {
            "linkId": "12.scabies-rash",
            "type": "display",
            "text": "Чесотка и сыпь"
        },
        {
            "text": "Оцените Ваше состояние",
            "type": "choice",
            "repeats": false,
            "linkId": "12.scabies-rash.severity",
            "answerOption": [
                {
                    "value": {
                        "Coding": {
                            "code": "1",
                            "display": "Нет"
                        }
                    }
                },
                {
                    "value": {
                        "Coding": {
                            "code": "2",
                            "display": "Легкий\nнебольшое высыпание и покраснение кожи"
                        }
                    }
                },
                {
                    "value": {
                        "Coding": {
                            "code": "3",
                            "display": "Средний\nболезненная сыпь"
                        }
                    }
                },
                {
                    "value": {
                        "Coding": {
                            "code": "4",
                            "display": "Сильный\nсыпь с язвочками"
                        }
                    }
                }
            ]
        },
        {
            "text": "Дата и время",
            "type": "dateTime",
            "linkId": "12.scabies-rash.datetime",
            "repeats": false
        },
        {
            "text": "Комментарий",
            "type": "text",
            "linkId": "12.scabies-rash.comment",
            "repeats": false
        },
        {
            "linkId": "13.dyspnea",
            "type": "display",
            "text": "Одышка"
        },
        {
            "text": "Оцените Ваше состояние",
            "repeats": false,
            "type": "choice",
            "linkId": "13.dyspnea.severity",
            "answerOption": [
                {
                    "value": {
                        "Coding": {
                            "code": "1",
                            "display": "Нет"
                        }
                    }
                },
                {
                    "value": {
                        "Coding": {
                            "code": "2",
                            "display": "Легкий\nдля дыхания прилагаются небольшие усилия"
                        }
                    }
                },
                {
                    "value": {
                        "Coding": {
                            "code": "3",
                            "display": "Средний\nодышка при обычном уровне активности"
                        }
                    }
                },
                {
                    "value": {
                        "Coding": {
                            "code": "4",
                            "display": "Сильный\nодышка во время отдыха"
                        }
                    }
                }
            ]
        },
        {
            "text": "Дата и время",
            "type": "dateTime",
            "linkId": "13.dyspnea.datetime",
            "repeats": false
        },
        {
            "text": "Комментарий",
            "type": "text",
            "linkId": "13.dyspnea.comment",
            "repeats": false
        },
        {
            "linkId": "14.cough",
            "type": "display",
            "text": "Кашель"
        },
        {
            "text": "Оцените Ваше состояние",
            "repeats": false,
            "type": "choice",
            "linkId": "14.cough.severity",
            "answerOption": [
                {
                    "value": {
                        "Coding": {
                            "code": "1",
                            "display": "Нет"
                        }
                    }
                },
                {
                    "value": {
                        "Coding": {
                            "code": "2",
                            "display": "Легкий"
                        }
                    }
                },
                {
                    "value": {
                        "Coding": {
                            "code": "3",
                            "display": "Средний\nсухой и длительный, снимается лекарствами"
                        }
                    }
                },
                {
                    "value": {
                        "Coding": {
                            "code": "4",
                            "display": "Сильный\nневозможно снять лекарствами"
                        }
                    }
                }
            ]
        },
        {
            "text": "Дата и время",
            "type": "dateTime",
            "linkId": "14.cough.datetime",
            "repeats": false
        },
        {
            "text": "Комментарий",
            "type": "text",
            "linkId": "14.cough.comment",
            "repeats": false
        },
        {
            "text": "Препарат",
            "repeats": true,
            "type": "reference",
            "linkId": "14.cough.meds"
        },
        {
            "linkId": "15.myalgia-arthralgia",
            "type": "display",
            "text": "Боль в мышцах и суставах"
        },
        {
            "text": "Оцените Ваше состояние",
            "repeats": false,
            "type": "choice",
            "linkId": "15.myalgia-arthralgia.severity",
            "answerOption": [
                {
                    "value": {
                        "Coding": {
                            "code": "1",
                            "display": "Нет"
                        }
                    }
                },
                {
                    "value": {
                        "Coding": {
                            "code": "2",
                            "display": "Легкий\nне требует обезболивания"
                        }
                    }
                },
                {
                    "value": {
                        "Coding": {
                            "code": "3",
                            "display": "Средний\nтребуется обезболивание"
                        }
                    }
                },
                {
                    "value": {
                        "Coding": {
                            "code": "4",
                            "display": "Сильный\nболь не снимается лекарствами"
                        }
                    }
                }
            ]
        },
        {
            "text": "Дата и время",
            "type": "dateTime",
            "linkId": "15.myalgia-arthralgia.datetime",
            "repeats": false
        },
        {
            "text": "Комментарий",
            "type": "text",
            "linkId": "15.myalgia-arthralgia.comment",
            "repeats": false
        },
        {
            "text": "Препарат",
            "repeats": true,
            "type": "reference",
            "linkId": "15.myalgia-arthralgia.meds"
        },
        {
            "linkId": "16.limbs-paresthesia",
            "type": "display",
            "text": "Онемение или покалывание в руках/ногах"
        },
        {
            "text": "Оцените Ваше состояние",
            "repeats": false,
            "type": "choice",
            "linkId": "16.limbs-paresthesia.severity",
            "answerOption": [
                {
                    "value": {
                        "Coding": {
                            "code": "1",
                            "display": "Нет"
                        }
                    }
                },
                {
                    "value": {
                        "Coding": {
                            "code": "2",
                            "display": "Легкий\nпокалывание"
                        }
                    }
                },
                {
                    "value": {
                        "Coding": {
                            "code": "3",
                            "display": "Средний\nпокалывание и онемение"
                        }
                    }
                },
                {
                    "value": {
                        "Coding": {
                            "code": "4",
                            "display": "Сильный\nонемение препятствует движению (например, невозможно держать небольшую чашку)"
                        }
                    }
                }
            ]
        },
        {
            "text": "Дата и время",
            "type": "dateTime",
            "linkId": "16.limbs-paresthesia.datetime",
            "repeats": false
        },
        {
            "text": "Комментарий",
            "type": "text",
            "linkId": "16.limbs-paresthesia.comment",
            "repeats": false
        },
        {
            "text": "Препарат",
            "repeats": true,
            "type": "reference",
            "linkId": "16.limbs-paresthesia.meds"
        },
        {
            "linkId": "17.limbs-edema",
            "type": "display",
            "text": "Отек рук или ног"
        },
        {
            "text": "Оцените Ваше состояние",
            "repeats": false,
            "type": "choice",
            "linkId": "17.limbs-edema.severity",
            "answerOption": [
                {
                    "value": {
                        "Coding": {
                            "code": "1",
                            "display": "Нет"
                        }
                    }
                },
                {
                    "value": {
                        "Coding": {
                            "code": "2",
                            "display": "Легкий\nотек кистей или ступней"
                        }
                    }
                },
                {
                    "value": {
                        "Coding": {
                            "code": "3",
                            "display": "Средний\nотек распространяется на руки и ноги"
                        }
                    }
                },
                {
                    "value": {
                        "Coding": {
                            "code": "4",
                            "display": "Сильный\nотек с болью или затрудненное дыхание"
                        }
                    }
                }
            ]
        },
        {
            "text": "Дата и время",
            "type": "dateTime",
            "linkId": "17.limbs-edema.datetime",
            "repeats": false
        },
        {
            "text": "Комментарий",
            "type": "text",
            "linkId": "17.limbs-edema.comment",
            "repeats": false
        },
        {
            "text": "Препарат",
            "repeats": true,
            "type": "reference",
            "linkId": "17.limbs-edema.meds"
        }
    ]
}