{
    "resourceType": "Attribute",
    "id": "ExtractedWithNLP.extracted",
    "description": "list of extracted entities as key-value collection",
    "isRequired": false,
    "isModifier": false,
    "path": [
        "extracted"
    ],
    "isCollection": true,
    "module": "fhir-4.0.0",
    "resource": {
        "id": "ExtractedWithNLP",
        "resourceType": "Entity"
    }
}