{
    "resourceType": "Attribute",
    "id": "ExtractedWithNLP.document",
    "description": "source document reference",
    "isRequired": true,
    "isModifier": false,
    "path": [
        "document"
    ],
    "type": {
        "id": "Reference",
        "resourceType": "Entity"
    },
    "refers": [
        "DocumentReference"
    ],
    "module": "fhir-4.0.0",
    "resource": {
        "id": "ExtractedWithNLP",
        "resourceType": "Entity"
    }
}